<?xml version="1.0" encoding="UTF-8"?>
<CustomTab xmlns="http://soap.sforce.com/2006/04/metadata">
    <frameHeight>760</frameHeight>
    <hasSidebar>false</hasSidebar>
    <label>Incent</label>
    <mobileReady>false</mobileReady>
    <motif>Custom57: Building Block</motif>
    <url>https://na4.salesforce.com/apex/XactlyCorp__Incent</url>
    <urlEncodingKey>UTF-8</urlEncodingKey>
</CustomTab>
